{
    "/js/app.js": "/js/app.js?id=5d9db6aa46fa96a064c6",
    "/js/components/datatables.js": "/js/components/datatables.js?id=56b4c54d40abbce55ea9",
    "/js/components/input-file-upload.js": "/js/components/input-file-upload.js?id=10d4847f0b022cadd1bc",
    "/js/helpers/clubs.index.js": "/js/helpers/clubs.index.js?id=f042f20966cdc840782e",
    "/js/helpers/people.index.js": "/js/helpers/people.index.js?id=8997b78f2fec7b23efeb",
    "/js/helpers/abilities.index.js": "/js/helpers/abilities.index.js?id=94a9642737db491b1550",
    "/js/helpers/abilities.show.js": "/js/helpers/abilities.show.js?id=e2884fa13f5da51f288f",
    "/css/app.css": "/css/app.css?id=1e9fb91a03dccc03c5db",
    "/webfonts/fa-brands-400.eot": "/webfonts/fa-brands-400.eot?id=0868992b7c56298026b7",
    "/webfonts/fa-brands-400.svg": "/webfonts/fa-brands-400.svg?id=1d5619cd804367cefe6d",
    "/webfonts/fa-brands-400.ttf": "/webfonts/fa-brands-400.ttf?id=9fefebd385ff8e0973f1",
    "/webfonts/fa-brands-400.woff": "/webfonts/fa-brands-400.woff?id=66ea863732752673548b",
    "/webfonts/fa-brands-400.woff2": "/webfonts/fa-brands-400.woff2?id=4ec8652aef2ce3e636bf",
    "/webfonts/fa-regular-400.eot": "/webfonts/fa-regular-400.eot?id=7077d9231c75a9046a76",
    "/webfonts/fa-regular-400.svg": "/webfonts/fa-regular-400.svg?id=c5d109be8edd3de0f60e",
    "/webfonts/fa-regular-400.ttf": "/webfonts/fa-regular-400.ttf?id=57519834dc5f9c6437e1",
    "/webfonts/fa-regular-400.woff": "/webfonts/fa-regular-400.woff?id=5f9919e4ca7ba90270eb",
    "/webfonts/fa-regular-400.woff2": "/webfonts/fa-regular-400.woff2?id=72236201e0deaf031ce8",
    "/webfonts/fa-solid-900.eot": "/webfonts/fa-solid-900.eot?id=0af95f09495e76b34fb2",
    "/webfonts/fa-solid-900.svg": "/webfonts/fa-solid-900.svg?id=37bc7099f6f1ba802361",
    "/webfonts/fa-solid-900.ttf": "/webfonts/fa-solid-900.ttf?id=d44877cb1fa07af67d56",
    "/webfonts/fa-solid-900.woff": "/webfonts/fa-solid-900.woff?id=26f963f67e793d91cc76",
    "/webfonts/fa-solid-900.woff2": "/webfonts/fa-solid-900.woff2?id=184257670d2e18e37fc9"
}
